…
``` r
homicide = 
homicide_raw %>% 
  mutate (
    city_state = str_c(city, ", ", state),
    city_state = ifelse(city_state == "Tulsa, AL", "Tulsa, OK", city_state)) %>%
  group_by(city_state) %>% 
  summarize(
    total_homicides = n(),
    unsolved_homicides = sum(disposition !="Closed by arrest"))

homicide
```

    ## # A tibble: 50 × 3
    ##    city_state      total_homicides unsolved_homicides
    ##    <chr>                     <int>              <int>
    ##  1 Albuquerque, NM             378                146
    ##  2 Atlanta, GA                 973                373
    ##  3 Baltimore, MD              2827               1825
    ##  4 Baton Rouge, LA             424                196
    ##  5 Birmingham, AL              800                347
    ##  6 Boston, MA                  614                310
    ##  7 Buffalo, NY                 521                319
    ##  8 Charlotte, NC               687                206
    ##  9 Chicago, IL                5535               4073
    ## 10 Cincinnati, OH              694                309
    ## # … with 40 more rows
…
``` r
city_final = 
  homicide %>% 
  mutate(
    outputs_df = map2 (unsolved_homicides,total_homicides, prop.test),
    final_outputs_df = map(outputs_df, broom::tidy)) %>% 
  unnest(final_outputs_df) %>% 
  select (city_state, estimate, conf.low, conf.high)

city_final
```

    ## # A tibble: 50 × 4
    ##    city_state      estimate conf.low conf.high
    ##    <chr>              <dbl>    <dbl>     <dbl>
    ##  1 Albuquerque, NM    0.386    0.337     0.438
    ##  2 Atlanta, GA        0.383    0.353     0.415
    ##  3 Baltimore, MD      0.646    0.628     0.663
    ##  4 Baton Rouge, LA    0.462    0.414     0.511
    ##  5 Birmingham, AL     0.434    0.399     0.469
    ##  6 Boston, MA         0.505    0.465     0.545
    ##  7 Buffalo, NY        0.612    0.569     0.654
    ##  8 Charlotte, NC      0.300    0.266     0.336
    ##  9 Chicago, IL        0.736    0.724     0.747
    ## 10 Cincinnati, OH     0.445    0.408     0.483
    ## # … with 40 more rows
…
``` r
norm_results_df = 
  expand_grid(
    mu = 0,
    iter = 1:5000) %>% 
  mutate(
    estimate_df = map(mu, ~norm_dis(mu=.x))
  ) %>% 
  unnest(estimate_df) 

norm_results_df
```

    ## # A tibble: 5,000 × 10
    ##       mu  iter estimate statistic p.value param…¹ conf.…² conf.…³ method alter…⁴
    ##    <dbl> <int>    <dbl>     <dbl>   <dbl>   <dbl>   <dbl>   <dbl> <chr>  <chr>  
    ##  1     0     1   0.504     0.556   0.582       29  -1.35    2.36  One S… two.si…
    ##  2     0     2  -0.0686   -0.0875  0.931       29  -1.67    1.54  One S… two.si…
    ##  3     0     3  -2.14     -2.40    0.0233      29  -3.97   -0.313 One S… two.si…
    ##  4     0     4   0.797     0.950   0.350       29  -0.918   2.51  One S… two.si…
    ##  5     0     5   0.737     0.833   0.411       29  -1.07    2.55  One S… two.si…
    ##  6     0     6  -1.99     -2.74    0.0105      29  -3.48   -0.502 One S… two.si…
    ##  7     0     7   0.474     0.428   0.671       29  -1.79    2.74  One S… two.si…
    ##  8     0     8  -0.227    -0.236   0.815       29  -2.20    1.74  One S… two.si…
    ##  9     0     9  -0.210    -0.220   0.828       29  -2.17    1.75  One S… two.si…
    ## 10     0    10  -0.999    -1.26    0.218       29  -2.62    0.625 One S… two.si…
    ## # … with 4,990 more rows, and abbreviated variable names ¹​parameter, ²​conf.low,
    ## #   ³​conf.high, ⁴​alternative
…
``` r
norm_results_df = 
  expand_grid(
    mu = 0:6,
    iter = 1:5000) %>% 
  mutate(
    estimate_df = map(mu, ~norm_dis(mu=.x))
  ) %>% 
  unnest(estimate_df) 

norm_results_df
```

    ## # A tibble: 35,000 × 10
    ##       mu  iter estimate statistic p.value param…¹ conf.…² conf.…³ method alter…⁴
    ##    <int> <int>    <dbl>     <dbl>   <dbl>   <dbl>   <dbl>   <dbl> <chr>  <chr>  
    ##  1     0     1   0.820     0.755   0.456       29  -1.40    3.04  One S… two.si…
    ##  2     0     2   0.807     0.841   0.407       29  -1.15    2.77  One S… two.si…
    ##  3     0     3   0.455     0.618   0.542       29  -1.05    1.96  One S… two.si…
    ##  4     0     4   0.499     0.611   0.546       29  -1.17    2.17  One S… two.si…
    ##  5     0     5   0.0411    0.0416  0.967       29  -1.98    2.06  One S… two.si…
    ##  6     0     6   1.26      1.85    0.0745      29  -0.133   2.66  One S… two.si…
    ##  7     0     7   1.43      1.45    0.158       29  -0.592   3.46  One S… two.si…
    ##  8     0     8  -0.924    -1.38    0.180       29  -2.30    0.450 One S… two.si…
    ##  9     0     9   0.816     1.11    0.275       29  -0.684   2.32  One S… two.si…
    ## 10     0    10  -0.282    -0.402   0.691       29  -1.71    1.15  One S… two.si…
    ## # … with 34,990 more rows, and abbreviated variable names ¹​parameter,
    ## #   ²​conf.low, ³​conf.high, ⁴​alternative
…
